Number, Name, Wood Type, Description
1, Bluewood, Magical, "Erie blue leaves, burns bright blue, silver hue to the wood"
2, Duskwood, Magical, "Smoky grey wood, hard as iron, fire resistant."
3, Hiexel, Magical, "Bark is useful as paper."
4, Laspar, Magical,"Golden yellow wood, metallic sheen."
5, Phendar, Magical, "Green-brown wood with black grain."
6, Shadowtop, Magical, "Strong fibrous wood, good for ropemaking, unsuitable for carving or loadbearing: it splits."
7, Silverbark, Magical, "Dry, brittle weak wood.  Holds magic tightly."
8, Suth, Magical, "Hard, durable wood.  Hard to work with but very strong."
9, Vundwood, Magical,"Red-brown wood with a plesant spicy smell, not like wormsign."
10, Weirwood, Magical,"Weirwood will never burn in a normal fire.  Resiliant and durable.  Favored by smiths."
11, Zabunter, Magical,"Black bark and wood, strong and easily worked."
12, Darkwood, Magical, "Not actually dark, but grows easily in little or no sunlight.  Weighs half as much as pine."
13, Ironbark, Magical, "The bark is as strong as steel, the wood as soft as a kitten's underbelly."
14, Monkey Puzzle Tree, Softwood, "It is believed that the long necks of sauropod dinosaurs may have evolved specifically to browse the foliage of the typically very tall Araucaria trees. The global distribution of vast forests of Araucaria during the Jurassic makes it likely that they were the major high energy food source for adult sauropods.

Some of the species are relatively common in cultivation because of their distinctive, formal symmetrical growth habit. Several species are economically important for timber production. The edible large seeds of A. araucana and A. bidwillii are also eaten as food, particularly among the Mapuche people."
15, Cedar, Softwood, "Cedar wood and cedar oil are known to be a natural repellent to moths, hence cedar is a lining for cedar chests and closets in which woolens are stored. This specific use of cedar is mentioned in The Great Apologue, referring to the cedar-roofed or lined storage chamber where Priam goes to fetch treasures to be used as ransom. Cedar is also commonly used to make shoe trees as it can absorb moisture and de-odorise."
16, Cypress, Softwood, "These and several other genera of cypress are also important in horticulture. Junipers are among the most important evergreen shrubs, groundcovers and small evergreen trees, with hundreds of cultivars selected, including plants with blue, grey, or yellow foliage. Chamaecyparis and Thuja also provide hundreds of dwarf cultivars as well as trees, including Lawson's cypress and the infamous hybrid Leyland cypress. Dawn redwood is widely planted as an ornamental tree because of its excellent horticultural qualities, rapid growth and status as a living fossil. Giant sequoia is a popular ornamental tree and is occasionally grown for timber. 'Red stick' was named after the decay-resistant red wood of Juniperus, used by inhabitants in the mid-continental region for waymarking. Its heartwood is fragrant and used in clothes chests, drawers and closets to repel moths. It is a source of juniper oil used in perfumes and medicines. The wood is also used as long lasting fenceposts and for bows. The fleshy cones of Juniperus communis are used to flavour gin. Calocedrus decurrens is the main wood used to make wooden pencils and is also used for cupboards and chests. Thuja leaves are a cure for scurvy. Distillation of Fokienia roots produces an essential oil used in medicine and cosmetics."
17, Fir, Softwood, "The wood of most firs is considered unsuitable for general timber use, and is often used for the manufacture of rough timber. Because this genus has no insect or decay resistance qualities after logging, This wood left outside cannot be expected to last more than 12 to 18 months, depending on the type of climate it is exposed to. It is commonly referred to as whitewood."
18, Hemlock, Softwood, "The wood obtained from hemlocks is important, especially for use as wood pulp. Many species are utilised in horticulture, and numerous cultivars have been selected for use in gardens. The bark of the hemlock is also used in tanning leather. The needles of the hemlock tree are sometimes used to make a tea. Ormonde Jayne Perfumery became the first perfume house to make a perfume from an extract of Black Hemlock Absolute oil and named it Ormonde Woman. It has since been named as one of the 100 great classic by Luca Turin in his book The Little Black Book of Perfume: 100 Great Classics. Since Ormonde Woman's launch several other scents have been launched using Black Hemlock."
19, Larch, Softwood, "Larch is a wood valued for its tough, waterproof, and durable qualities; top quality knot-free timber is in great demand for building yachts and other small boats, for exterior cladding of buildings, and interior panelling. The timber is resistant to rot when in contact with the ground, and is suitable for use as posts and in fencing. The hybrid Dunkeld Larch is widely grown as a timber crop in the north, valued for its fast growth and disease resistance.

Larch has also been used in herbal medicine.

In central climes, larch is viewed as one of the best wood materials for the building of residences. Planted on borders with birch, both tree species were used in ancient cremations.

Larches are often used in bonsai culture, where their knobby bark, small needles, fresh spring foliage, and autumn colour are appreciated. Tamarack Larch is the species most commonly trained as bonsai."
20, Red cedar, Softwood, "The fine-grained, soft brittle pinkish- to brownish-red heartwood is fragrant, very light and very durable, even in contact with soil. Because of its rot resistance, the wood is used for fence posts. The aromatic wood is avoided by moths, so it is in demand as lining for clothes chests and closets, often referred to as cedar closets and cedar chests. If correctly prepared, it makes excellent wood for longbows, flatbows, and sinew-backed bows.

Juniper oil is distilled from the wood, twigs and leaves. The essential oil contains cedrol which has toxic and possibly carcinogenic properties. The cones are used to flavor gin and as a kidney medicine.

Some tribes use juniper wood poles to mark out agreed tribal hunting territories. "
21, Redwood, Softwood, "Redwood lumber is highly valued for its beauty, light weight, and resistance to decay. Its lack of resin makes it resistant to fire.

P.H. Shaughnessy, Chief Engineer of the Fire Department in Ciseroth, City of Whispering Courtesans wrote,

'In the recent great fire we succeeded in finally stopping it in nearly all directions where the unburned buildings were almost entirely of frame construction, and if the exterior finish of these buildings had not been of redwood lumber, I am satisfied that the area of the burned district would have been greatly extended.'"
22, Spruce, Softwood, "Spruce is useful as a building wood. Spruce wood is used for many purposes, ranging from general construction work and crates to highly specialised uses in wooden ballons seen on the skyline of Ciseroth, and as a tonewood in many musical instruments, including guitars, mandolins, cellos, violins, and the soundboard at the heart of a piano and the harp.

The fresh shoots of many spruces and pines are a natural protection against scurvy and the leaves and branches, or the essential oils, can be used to brew spruce beer.

The tips from the needles can be used to make spruce tip syrup. In survival situations spruce needles can be directly ingested or boiled into a tea. Also, water is stored in a spruce's needles, providing an alternative means of hydration. Spruce can be used as a preventive measure for scurvy in an environment where meat is the only prominent food source.

The resin is used in the manufacture of pitch.

Tribes often use the pliable roots of some species for weaving baskets and for sewing together pieces of birch bark for canoes. The unusual golden Sitka Spruce is sacred to the Haida people."
23, Alder, Hardwood, "Alder bark contains the anti-inflammatory salicin. The tribes use red alder bark (Alnus rubra) to treat poison oak, insect bites, and skin irritations. Some use an infusion made from the bark of red alder to treat lymphatic disorders and tuberculosis.

The inner bark of the alder, as well as red osier dogwood, or chokecherry, was also used by Native Americans is also used by the Tribes in their smoking mixtures, known as kinnikinnick, to improve the taste of the bearberry leaf.

Alder is illustrated in the coat of arms for the town of Grossarl.

As a hardwood, alder is used in making furniture, cabinets, and other woodworking products."
24, Applewood, Hardwood, "The apple forms a tree that is small and deciduous, generally standing 1.8 to 4.6 m (6 to 15 ft) tall in cultivation and up to 9.1 m (30 ft) in the wild. When cultivated, the size, shape and branch density is determined by rootstock selection and trimming method. The leaves are alternately arranged dark green-colored simple ovals with serrated margins and slightly downy undersides."
25, Ash, Hardwood, "Ash is a hardwood and is hard, dense, tough and very strong but elastic, extensively used for making bows, tool handles, hurleys and other uses demanding high strength and resilience.

It makes excellent firewood and barbecue or smoking wood. The inner bark of the Blue Ash (F. quadrangulata) is used as a source for a blue dye.

Cut off in the autumn the branches can be a valuable winter supply for domestic animals."
26, Aspen, Hardwood, "Aspen wood is white and soft, but fairly strong, and has low flammability. It has a number of uses, notably for making matches and paper where its low flammability makes it safer to use than most other woods. Shredded aspen wood is used for packing and stuffing, sometimes called excelsior (wood wool). It is also a popular animal bedding, since it lacks the phenols associated with pine and juniper, which are thought to cause respiratory system ailments in some animals. Heat-treated aspen is a popular material for the interiors of a sauna. While standing trees sometimes tend to rot from the heart outward, the dry timber weathers very well, becoming silvery-grey and resistant to rotting and warping, and has traditionally been used for rural construction."
27, Balsa, Hardwood, "Balsa lumber is very soft and light, with a coarse, open grain. As it is low-density but high in strength, balsa is a very popular material to use when making light, stiff structures."
28, Beech, Hardwood, "Beech wood is an excellent firewood, easily split and burning for many hours with bright but calm flames. Chips of beech wood are used in the brewing of some beers as a fining agent. Beech logs are burned to dry the malts used in some noern smoked beers, giving the beers their typical flavour. Beech is also used to smoke Westphalian ham, various sausages, and some cheeses.

Some drums are made from beech, which has a tone between those of maple and birch, the two most popular drum woods."
29, Birch, Hardwood, "Birch wood is fine-grained and pale in colour, often with an attractive satin-like sheen. Ripple figuring may occur, increasing the value of the timber for veneer and furniture-making. The highly decorative Masur (or Karelian) birch, from Betula verrucosa var. carelica, has ripple textures combined with attractive dark streaks and lines.

Extracts of birch are used for flavoring or leather oil, and in cosmetics such as soap.

Birch leaves are used to make a diuretic tea and extracts for dyes and cosmetics.

Ground birch bark, fermented in sea water, is used for seasoning the woolen, hemp or linen sails and hemp rope of traditional Norwegian boats.

Birch twigs bound in a bundle, also called birch, were used for birching, a form of corporal punishment.
Many of the Tribes prize  the birch for its bark, which due to its light weight, flexibility, and the ease with which it could be stripped from fallen trees, was often used for the construction of strong, waterproof but lightweight canoes, bowls, and tents."
30, Basswood, Hardwood, "The linden or basswood is recommended as an ornamental tree when a mass of foliage or a deep shade is desired. The tree produces fragrant and nectar-producing flowers, the medicinal herb lime blossom. They are very important honey plants for beekeepers, producing a very pale but richly flavoured monofloral honey. The flowers are also used for herbal teas and tinctures.

The timber of linden trees is soft and easily worked; it has very little grain.

During the era of Dragon Boats, it was often used for constructing shields. It is a popular wood for model building and intricate carving. Especially in the south, it was the classic wood for sculpture from the Classical Period  onwards and is the material for the elaborate altarpieces of Veit Stoss, Tilman Riemenschneider, and many others."
31, Blackwood, Hardwood, "The Tribes are said to  derive an analgesic from the tree.

The wood is very good for many uses including furniture, tools, boats, and wooden kegs. It is of about the same quality as walnut and it is well-suited for shaping with steam. The bark has a tannin content of about 20%. It may also be used for producing decorative veneers.

The tree's twigs and its bark are used to poison fish as a way of fishing. This tree can also be used as a fire barrier plant, amongst other plants, in rural situations."
32, Boxwood, Hardwood, "Slow growth of box renders the wood ('boxwood') very hard (possibly the hardest in the East) and heavy, and free of grain produced by growth rings, making it ideal for cabinet-making, the crafting of instruments, engraving, marquetry, woodturning, tool handles, mallet heads and as a substitute for ivory."
33, Buckeye, Hardwood, "Though the seeds are said to repel spiders there is little evidence to support these claims. The presence of saponin may repel insects but it is not clear whether this is effective on spiders. However, the seeds attract mice so they aren't a good idea if you want to get rid of the spiders, as you will just get mice.

The seed extract standardized to around 20 percent aescin is used for its venotonic effect, vascular protection, anti-inflammatory and free radical scavenging properties." 
34, Cherry, Hardwood, "The wood of some species of cherry tree is a specialised timber.

Many species produce an aromatic resin from wounds in the trunk; this is sometimes used medicinally. Other minor uses include dye production.

Pygeum, a herbal remedy containing extracts from the bark of Prunus africana, is used as to alleviate some of the discomfort caused by inflammation"
36, Cottonwood, Hardwood, "Cottonwoods are widely grown for timber production along wet river banks, where their exceptional growth rate provides a large crop of wood within just 10 to 30 years. The wood is coarse and of fairly low value, used for pallet boxes, shipping crates, and similar purposes where a cheap but strong enough wood is suitable.

Cottonwood bark is often a favorite medium for artisans. The bark, which is usually harvested in the fall after a tree's death, is generally very soft and easy to carve.

Cottonwood is one of the poorest wood fuels; it does not dry well, and rots quickly. It splits poorly, because it is very fibrous. It produces a low level of energy per unit of volume of wood."
37, Dogwood, Hardwood, "Dense and fine-grained, dogwood timber is highly prized for making loom shuttles, tool handles and other small items that require a very hard and strong wood. Though it is tough for woodworking, some artisans favor dogwood for small projects such as walking canes, longbows and fine inlays. Dogwood wood is an excellent substitute for persimmon wood."
38, Elm, Hardwood, "Elm wood is valued for its interlocking grain, and consequent resistance to splitting, with significant uses in wagon wheel hubs, chair seats and coffins. The elm's wood bends well and distorts easily making it quite pliant. The often long, straight, trunks are favoured as a source of timber for keels in ship construction. Elm is also prized by bowyers; elm is also used to make longbows if yew was unavailable."
39, Eucalyptus, Hardwood, "Many species, but far from all, are known as gum trees because they exude copious sap from any break in the bark.  Eucalypts have desirable traits such as being fast-growing sources of wood, producing oil that can be used for cleaning and as a natural insecticide, or an ability to be used to drain swamps.

All parts of Eucalyptus may be used to make dyes that are substantive on protein fibres (such as silk and wool), simply by processing the plant part with water. Colours to be achieved range from yellow and orange through green, tan, chocolate and deep rust red. The material remaining after processing can be safely used as mulch or fertiliser."
41, Hickory, Hardwood, "Hickory wood is very hard, stiff, dense and shock resistant. There are woods that are stronger than hickory and woods that are harder, but the combination of strength, toughness, hardness and stiffness found in hickory wood is not found in any other natural wood."
42, Ironwood, Hardwood, "Commonly known as Ocean Spray, Creamwood or Ironwood, Historically the plant has been used for many purposes. The Lummi used the flowers as an antidiarrheal and the leaves as a poultice. Many other tribes used the wood and bark for making tools and furniture. Noted for the strength of its wood, it was often used for making spears, arrows, bows, harpoons and nails. The wood, like with many other plants, was often hardened with fire and was then polished using horsetail. Several Indian tribes, such as the Stl'atl'imx, would steep the berries in boiling water to use as a treatment for diarrhea, smallpox, chickenpox and as a blood tonic."
43, Locust, Hardwood, "The tree reaches a height of seventy feet, with a trunk three or four feet in diameter and brittle branches that form an oblong narrow head. It spreads by underground shoots. The leaflets fold together in wet weather and at night; some change of position at night is a habit of the entire leguminous family.

The wood is extremely hard, resistant to rot and durable, making it prized for furniture, flooring, paneling, fence posts and small watercraft. Wet, newly-cut planks have an offensive odour which disappears with seasoning. Chemicals in the heartwood allow the wood to last over 100 years in soil."
44, Maple, Hardwood, "Maples are important as source of syrup and wood. Dried wood is often used for the smoking of food.

Some of the larger maple species have valuable timber, particularly Sugar maple and Sycamore.

Some maple wood has a highly decorative wood grain, known as flame maple, quilt maple, birdseye maple and burl wood. This condition occurs randomly in individual trees of several species, and often cannot be detected until the wood has been sawn, though it is sometimes visible in the standing tree as a rippled pattern in the bark."
45, Oak, Hardwood, "Oak planking was common on high status longships in the 9th and 10th centuries. The wood was hewn from green logs, by axe and wedge, to produce radial planks, similar to quarter-sawn timber. Wide, quarter-sawn boards of oak have been prized since the Classical Period for use in interior panelling of prestigious buildings such as the debating chamber of the Common House in Ciseroth and in the construction of fine furniture. Oak wood, from Quercus robur and Quercus petraea, was used in East for the construction of ships, especially naval men of war, until the 39th century, and was the principal timber used in the construction of Eastern timber-framed buildings. Today oak wood is still commonly used for furniture making and flooring, timber frame buildings, and for veneer production. Barrels in which wines, sherry, and spirits such as brandy and whiskeys are aged in barrles made from oak. The use of oak in wine can add many different dimensions to wine based on the type and style of the oak. Oak barrels, which may be charred before use, contribute to the colour, taste, and aroma of the contents, imparting a desirable oaky vanillin flavour to these drinks. The great dilemma for wine producers is to choose between Tribal and Black Man oakwoods. Tribal oaks (Quercus robur, Q. petraea) give the wine greater refinement and are chosen for the best wines since they increase the price compared to those aged in Black Man oak wood. Black Man oak contributes greater texture and resistance to ageing, but produces more powerful wine bouquets. Oak wood chips are used for smoking fish, meat, cheeses and other foods."
46, Poplar, Hardwood, "In modern society poplar is not readily associated with many uses beyond biomass. This poor reputation is undeserved, as its flexibility and close grain give it a balance of properties that have made it highly desirable for a number of applications (similar to those for willow) since antiquity.  It is espcially recommended for shield-making."
47, Sandalwood, Hardwood, "Sandalwood oil has a distinctive soft, warm, smooth, creamy and milky precious-wood scent. It imparts a long-lasting, woody base to perfumes from the oriental, woody, foughre, and chypre families, as well as a fixative to floral and citrus fragrances. When used in smaller proportions in a perfume, it acts as a fixative, enhancing the longevity of other, more volatile, materials in the composite. Last but not least, sandalwood is a key ingredient in the 'floriental' (floral-ambery) fragrance family - when combined with white florals such as jasmine, ylang ylang, gardenia, plumeria, orange blossom, tuberose, etc."
48, Sassafras, Hardwood, "An essential oil, called sassafras oil, is distilled from the root bark or the fruit. It is used as a fragrance in perfumes and soaps, food (sassafras tea and candy flavoring) and for aromatherapy. The smell of sassafras oil is said to make an excellent repellent for mosquitoes and other insects, which makes it a nice garden plant. Acids can be extracted from bark for manufacturing perfumes.

The essential oil was used as a pain killer as well as an antiseptic in dentistry. The pith is used to soothe eye inflammation and ease catarrh.

Safrole is commonly used by clandestine laboratories to synthesize various drugs."
49, Teak, Hardwood, "Teak is a tropical hardwood tree species Tectona grandis. Tectona grandis is a large, deciduous tree that is dominant in mixed hardwood forests. It has small, fragrant white flowers and papery leaves that are often hairy on the lower surface."
50, Walnut, Hardwood, "The nuts are rich in oil, and are widely eaten both fresh and in cookery. Walnut oil is expensive and consequently is used sparingly; most often in salad dressings. Walnut oil has been used in oil paint, as an effective binding medium, known for its clear, glossy consistency and nontoxicity.

The common walnut and the black walnut and its allies, are important for their attractive timber, which is hard, dense, tight-grained and polishes to a very smooth finish. The colour ranges from creamy white in the sapwood to a dark chocolate colour in the heartwood. When kiln-dried, walnut wood tends toward a dull brown colour, but when air-dried can become a rich purplish-brown. Because of its colour, hardness and grain, it is a prized furniture and carving wood. Walnut burls are commonly used to create bowls and other turned pieces."
51, Willow, Hardwood, "The leaves and bark of the willow tree have been mentioned in ancient texts. The physician Hippocrates wrote about its medicinal properties.

Some of humans' earliest manufactured items may have been made from willow. A fishing net made from willow dates back to the earliest periods we can trace. Basic crafts, such as baskets, fish traps, wattle fences and wattle and daub house walls, were often woven from osiers (rod-like willow shoots, often grown in coppices). One of the forms of Blue Man coracle traditionally uses willow in the 'lats'. Thin or split willow rods can be woven into wicker, which also has a long history. The relatively pliable willow is less likely to split while being woven than many other woods, and can be bent around sharp corners in basketry. Willow wood is also used in the manufacture of boxes, brooms, cricket bats (grown from certain strains of white willow), cradle boards, chairs and other furniture, dolls, flutes, poles, sweat lodges, toys, turnery, tool handles, veneer, wands and whistles. In addition, tannin, fibre, paper, rope and string can be produced from the wood."
52, Baku, Ivory, "Baku are huge elephantine creatures with the tail of a lizard. The Baku's rear feet end in leonine paws complete with claws. The baku's back is covered with dragonlike scales running from their head all the way to the end of their tail. They have a short trunk, usually four feet in length.

Good aligned baku generally live secretly among humankind using their psionic powers to polymorph into a humanoid form, choosing to do good and help out where ever possible. The evil baku however will try to undo the work of those good baku they can. True neutral baku are considered 'Holy Ones' and are revered by their good aligned 'Brothers'.

On the black market, baku tusks fetch a reasonable price. However if a 'Holy One' learns of this trade, it will travel great distances (either physical or psionic) to confront the merchant and counsel them in their ways."
53, Behemoth, Ivory, "Related to the Hippo, the Behemoth is of gargantuan size, with enormous tusks; the bottom two of which point to left and right."
54, Catoblepas, Ivory, "A catoblepas has a large, bloated, bison's body with short, stumpy legs like those of a hippopotamus. At the front of its body is a shaggy mane of dark brown hair, from which sprouts a long, weak, snake-like neck. The creature's head like that of a warthog with bloodshot eyes. The beast's coiling, serpentine tail has a stony mass of stubby spikes at the end. The catoblepas is orange-reddish-brown, and its hide is covered with warts, scabs, and bits of encrusted dung.

Catoblepae are typically neutral evil and their gaze is death.
A wonderful cheese can be made from their milk."
55, Elephant, Ivory, "All elephants have several distinctive features the most notable of which is a long trunk or proboscis, used for many purposes, particularly breathing, lifting water and grasping objects. Their incisors grow into tusks, which can serve as weapons and as tools for moving objects and digging. Elephants' large ear flaps help to control their body temperature. African elephants have larger ears and concave backs while Asian elephants have smaller ears and convex or level backs."
56, Hippopotamus, Ivory, "The hippopotamus is one of the largest quadrupeds and, despite its stocky shape and short legs, it can easily outrun a human. The hippopotamus is one of the most aggressive creatures in the world and, as such, ranks among the most dangerous animals known." 
57, Hollyphant, Ivory, "A tiny winged elephant with golden fur."
58, Mammoth, Ivory, "Like elephants, mammoths are quite large. The largest known species reaches heights in the region of 4 m (13 ft) at the shoulder and weights up to 8 tonnes (9 short tons), while exceptionally large males may have exceeded 12 tonnes (13 short tons). Both sexes bore tusks. A first, small set appeared at about the age of six months and these were replaced at about 18 months by the permanent set."
59, Mastodon, Ivory, "Mastodons have been characterized as predominantly browsing animals, most accounts of gut contents have identified coniferous twigs as the dominant element in their diet, in other accounts (Burning tree mastodon) have found no coniferous content and suggest selective feeding on low, herbaceous vegetation, implying a mixed browsing and grazing diet, evidence supported by studies of isotopic bone chemistry but displaying a seasonal preference for browsing."
60, Narwhal, Ivory, "Narwhals are medium-sized whales, and are around the same size as beluga whales. Total length in both sexes, excluding the tusk of the male, can range from 3.95 to 5.5 m. Males, at an average length of 4.1 m, are slightly larger than females, with an average length of 3.5 m. Typical adult body weight ranges from 800 to 1,600 kg (1,800 to 3,500 lb). They are darkest when born and become whiter with age. Old males may be almost pure white. Narwhals do not have a dorsal fin, possibly an evolutionary adaptation to swimming easily under ice. Their neck vertebrae are jointed, like those of land mammals, instead of being fused together as in most whales."
61, Oliphant, Ivory, "An oliphant is an apparent modern relative of the mastodon, with down-curving tusks. An oliphant is intelligent enough to be trained as an engine of destruction, attacking with its tusks and heavy forelegs, and can be used in war and for other military duties when armored with leather or scale and plate reinforcements, spikes projecting from head and forelegs, and bearing a castle-like houdas containing archers and pikemen."
62, Walrus, Ivory, "Adult walruses are easily recognized by their prominent tusks, whiskers, and bulkiness. Adult males in the Pacific can weigh more than 2,000 kg and, among pinnipeds, are exceeded in size only by the two species of elephant seals. Walruses live mostly in shallow waters above the continental shelves, spending significant amounts of their lives on the sea ice looking for benthic bivalve mollusks to eat. Walruses are relatively long-lived, social animals, and they are considered to be a 'keystone species' in the Northern marine regions."
63, "Walrus Giant", Ivory, "Adult walruses are easily recognized by their prominent tusks, whiskers, and bulkiness. Adult males in the Pacific can weigh more than 7,000 kg and are the largest of the pinnipeds. Walruses live mostly in shallow waters above the continental shelves, spending significant amounts of their lives on the sea ice looking for benthic bivalve mollusks to eat. Walruses are relatively long-lived, social animals, and they are considered to be a 'keystone species' in the Northern marine regions."
64, Pine, Softwood, "The bark of most pines is thick and scaly, but some species have thin, flaking bark. The branches are produced in regular 'pseudo whorls', actually a very tight spiral but appearing like a ring of branches arising from the same point. Many pines are uninodal, producing just one such whorl of branches each year, from buds at the tip of the year's new shoot, but others are multinodal, producing two or more whorls of branches per year. The spiral growth of branches, needles, and cone scales are arranged in Fibonacci number ratios. The new spring shoots are sometimes called 'candles'; they are covered in brown or whitish bud scales and point upward at first, then later turn green and spread outward. These 'candles' offer foresters a means to evaluate fertility of the soil and vigour of the trees.

Pines are among the most commercially important tree species valued for their timber and wood pulp throughout the world. In temperate and tropical regions, they are fast-growing softwoods that will grow in relatively dense stands, their acidic decaying needles inhibiting the sprouting of competing hardwoods. Pines are grown in plantations for timber that is denser, more resinous, and therefore more durable than spruce (Picea). Pine wood is widely used in high-value carpentry items such as furniture, window frames, panelling, floors and roofing, and the resin of some species is an important source of turpentine.

Many pine species make attractive ornamental plantings for parks and larger gardens with a variety of dwarf cultivars being suitable for smaller spaces. Pine cones, the largest and most durable of all conifer cones, are craft favorites. Pine boughs, appreciated especially in wintertime for their pleasant smell and greenery, are popularly cut for decorations. A number of species are attacked by nematodes, causing pine wilt disease, which can kill some quickly. Pine needles are also used for making decorative articles like baskets, trays, pots, etc. This ancinet skill is now being replicated across the world. 

Pines have no insect or decay resistant qualities after logging. This wood left outside can be expected to last no more than 12 to 18 months depending on the local climate."
65, White cedar, Softwood, "White Cedar is a tree with important uses in traditional Ojibwe culture. Honoured with the name Nookomis Giizhik ('Grandmother Cedar'), the tree is the subject of sacred legends and is considered a gift to humanity for its myriad uses, among them crafts, construction and medicine. It is one of the four plants of the Ojibwe medicine wheel, associated with the south. The foliage of Thuja occidentalis is rich in Vitamin C and is believed to be the annedda which cured the scurvy of Jacques Cartier and his party in the winter of 1535 to 1536. Due to the presence of the neurotoxic compound thujone, internal use can be harmful if used for prolonged periods or while pregnant.

Northern white cedar is commercially used for rustic fencing and posts, lumber, poles, shingles and in the construction of log cabins, White cedar is the preferred wood for the structural elements, such as ribs and planking, of birchbark canoes and the planking of wooden canoes. It was used for the original Au Sable riverboats."
66, Ebony, Hardwood, "Ebony is a dense black wood, most commonly yielded by several different species in the genus Diospyros. Ebony is dense enough to sink in water. It is finely-textured and has a very smooth finish when polished, making it valuable as an ornamental wood. Ebony has a long history of use, with carved pieces having been found in Ancient tombs."
67, Mahogany, Hardwood, "Mahogany has a straight, fine and even grain, and is relatively free of voids and pockets. Its reddish-brown color darkens over time, and displays a reddish sheen when polished. It has excellent workability, and is very durable. Historically, the tree's girth allowed for wide boards from traditional mahogany species. These properties make it a favorable wood for crafting cabinets and furniture."