Number, Goods, FLOAT: Value Low, FLOAT: Value High, Unit, Description
1, Cotton, 1.0, 1.5, Pound, "Price varies between 1sp and 1.5 sp depending on quality."
2, Wool, 0.03, 0.07, Pound, "Price varies between 3 and 7 cp per pound."
3, Flax, 0.5, 0.7, Pound, "Price varies between 5 and 7 bp per pound."
4, "Furs, Skins and Hides", 0.3, 150.0, Pound, "Animal hides, skins and furs, 3 bp to 1 sp per pound."
9, Ingot: Common, 0.02, 0.15, Pound, "Ingots are 1 pound each."
10, Ingot: Rare, 15, 80, Pound, "Ingots are 1 pound each."
14, Lumber: Normal, 8.0, 14.0, cord, "A full cord of lumber measures w:4' x h:4' x l:8', weighs between 2000 pounds a cord for softwoods, to 4000 pounds a cord for exotic hardwoods.  Each cord takes up a quarter-ton of space in a ship.  "
15, Lumber: Magical, 20.0, 100.0, cord, "A full cord of lumber measures w:4' x h:4' x l:8' and has a weight that varies wildly, depending on the wood.  It can weigh anywhere between -2000 pounds a cord for skywood to 5000 pounds a cord for exotic Palinor wood.  Each cord takes up a quarter-ton of space in a ship.  It ranges in value between 20 sp per cord for decorative magical wood to 100 sp per cord for wood with useful properties."
16, Wine, 0.1, 50, bottle, "Your average wine, can be found in cases containing up to 12 bottles each.  12 cases takes up one tenth of a ton of ship space."
17, Beer, 0.1, 100, gallon, "Your average cask of beer or ale.  Casks can range from the Gallon(1gal.), to the barrel(32gal.), to the hogshead(64gal.), to the tun(256gal.)."
18, Liquor, 2, 200, gallon, "Your average cask of distilled liquor.  Casks can range from the Gallon(1gal.), to the barrel(32gal.), to the hogshead(64gal.), to the tun(256gal.)."
19, Wine: Rare, 100, 500, bottle, "An exotic wine, whether it's rare because of age or difficulty of creation.  Can be found in  cases containing up to 12 bottles each.  12 cases takes up one tenth of a ton of ship space."
20, Beer: Rare, 200, 1500, gallon,  "An exotic cask of beer or ale.  Casks can range from the Gallon(1gal.), "to the barrel(32gal.), to the hogshead(64gal.), to the tun(256gal.)."
21, Liquor: Rare, 200, 3000, gallon, "An exotic cask of distilled liquor. Casks can range from the Gallon(1gal.), to the barrel(32gal.), to the hogshead(64gal.), to the tun(256gal.)."
22, Grain and Foodstuffs, 0.01, 10, Pound, "Price varies wildly between 1 cp  and 10 sp per pound."
23, Livestock, 0.1, 10.0, animal, "Price varies between 1 bp for chickens to  10 sp for cows and cow-like creatures."
24, Slaves, 40.0, 2000.0, slave, "Provided slavery is legal, the value depends on the price to rent the services of the slave for two years.  Freed slaves are worth 200xp."
25, Sugar or salt, 1.0, 1.1, Pound, "Standard sugar or salt, found in 20 pound bags."
26, Hemp or jute, 0.2, 0.4, Pound, "Raw materials for making coarse cloth, rope and other fabrics not used (often) for clothing."
27, Spices and herbs, 0.01, 20.0, Pound, "Spices can range in value from simple rosemary at 1 cp per pound to exotic flavors such as saffron or purple worm musk at 20 sp per pound."
28, Dressed stone, 0.2, 0.5, cubic foot, "Each cubic foot of stone weighs 100 pounds. (Good luck!)"
29, Cloth or fabric, 1, 30, 2 sq. yards ea., "Each 2 sq. yards is approximately 1 pound.  Price varies on type of fabric - wool and cotton at the low end, exotic materials like silk and furs at the high end."
30, Leather, 5, 100, 2 sq. yards ea., "Each 2 sq. yards is approximately 2 pounds.  Price varies on type of leather - Bovine hide is around 10 sp, while dragon hide can be 100 sp per pound or higher."
31, Pewter, 0.1, 0.9, Pound, "Functional items like flatware, plates or cups, sturdy and plain or simply decorated."
32, Brass, 5, 10, Pound,  "Functional items like flatware, plates or cups, sturdy and plain or simply decorated."
33, Copperware, 4, 8, Pound,  "Functional items like flatware, plates or cups, sturdy and plain or simply decorated."
34, Ceramics, 10, 20, Pound,  "Functional items like flatware, plates or cups, sturdy and plain or simply decorated."
35, Wooden items, 5, 15, Pound,  "Functional items like flatware, plates or cups, sturdy and plain or simply decorated."
36, Metal bar stock, 100, 500, bar (10-50 Pound ea.), "Standard iron or steel bars weigh 25 pounds, while more exotic materials can weigh twice that and rarer materials even more.  Rare materials usually come in smaller bars."