DieRoll, Style, Type
1, Sculpture, Metalwork
2, Clockwork, Metalwork
3, Mobile, Metalwork
4, Steel, Metalwork
5, Iron, Metalwork
6, Copper, Metalwork
7, Mithril, Metalwork
8, Gold, Metalwork
9, Electrum, Metalwork
10, Platinum, Metalwork
12, Mercury, Metalwork
13, Adamant, Metalwork
14, Unobtanium, Metalwork
15, Brass, Metalwork
16, Watercolor, Painting
17, Oils, Painting
18, Acrylic, Painting
19, Enamel, Painting
20, Prints, Paper
21, Calligraphy, Paper
22, Illuminated manuscript, Paper
23, Papier mache, Paper
24, Origami, Paper
25, Illustrations: pen, Paper
26, Collage, Paper
27, Illustrations: pencil, Paper
28, Statue, Stonework
29, Birdbath, Stonework
30, Decorative bricks, Stonework
31, Sundial, Stonework
32, Moondial, Stonework
33, Ley-line dial, Stonework
34, Knapped flint, Stonework
35, Granite, Stonework
36, Basalt, Stonework
37, Limestone, Stonework
38, Marble, Stonework
39, Obsidian, Stonework
40, Tapestry, Fabric
41, Embroidery, Fabric
42, Quilt, Fabric
43, Rug: Afghan style, Fabric
44, Rug: Armenian style, Fabric
45, Patterned bolt: silk, Fabric
46, Patterned bolt: fine cotton, Fabric
47, Patterned bolt: Moonweave, Fabric
48, Patterned bolt: spider silk, Fabric
49, Patterned bolt: goat silk, Fabric
50, Doll, Craft
51, Ikebana, Craft
52, Beadwork, Craft
53, Basket, Craft
54, Decanter, Glasswork
55, Chandelier, Glasswork
56, Goblet, Glasswork
57, Pipe, Glasswork
58, Bowl, Glasswork
59, Stained, Glasswork
60, Painted, Glasswork
61, Etched, Glasswork
62, Beaded, Glasswork
63, Porcelain, Glasswork
64, Alchemical, Glasswork
65, Scholarly, Glasswork
66, Wizardly, Glasswork
67, Natural, Glasswork
68, Magical, , Glasswork
69, Rug: magical - glowing, Fabric
70, Rug: magical - floats 1in., Fabric
71, Tapestry: magical - figures move, Fabric
72, Pottery, Ceramics
73, Urn, Ceramics
74, Statue, Ceramics
75, Idol, Ceramics
76, China, Ceramics
77, Tilework, Ceramics
78, Mosaic, Ceramics
79, Woodwork, Carving
80, Scrimshaw, Carving
81, Bonework, Carving
82, Ivorywork, Carving
83, Scales, Carving
84, Masks, Carving
85, Insect shell, Carving
86, Frozen gelatinous cube, Carving
87, Undead insects, Carving
88, Clockwork insects, Metalwork
89, Clockwork birds, Metalwork
90, Clockwork pedipalps, Metalwork