Number, Provenance
1, Low-level wizard, dabbling in powers beyond his limits
2, Famous high-level wizard
3, Wandering cleric
4, Powerful cleric, head of a faith
5, Demon seeking escape from a prison
6, Devil trying to curry favor with a more powerful entity
7, A god, who planted the magic item knowing it will be used in the End Days for specific purposes
8, A nascent demigod, whose dreaming semi-awareness on a distant plane formed the magic item from nothingness
9, A thief and magician working together, who intended to use the item on a great heist
10, A warlord ordered the item created so that he could conquer nations
11, A sorcerer who could not find love forged the item out of bitterness
12, An intelligent unicorn
13, A powerful elemental with magical abilities
14, A tribal shaman
15, A brooding witch
16, The seventh son of a seventh son
