Number, Color
1, Alizarin
2, Amaranth
3, Amber
4, Amethyst
5, Apricot
6, Aqua
7, Aquamarine
8, Asparagus
9, Auburn
10, Azure
11, Beige
12, Bistre
13, Black
14, Blue
15, Blue Green
16, Blue Violet
17, Bondi Blue
18, Brass
19, Bronze
20, Brown
21, Buff
22, Burgundy
23, Burnt Orange
24, Burnt Sienna
25, Burnt Umber
26, Camouflage Green
27, Caput Mortuum
28, Cardinal
29, Carmine
30, Carrot orange
31, Celadon
32, Cerise
33, Cerulean
34, Champagne
35, Charcoal
36, Chartreuse
37, Cherry Blossom Pink
38, Chestnut
39, Chocolate
40, Cinnabar
41, Cinnamon
42, Cobalt
43, Copper
44, Coral
45, Corn
46, Cornflower
47, Cream
48, Crimson
49, Cyan
50, Dandelion
51, Denim
52, Ecru
53, Emerald
54, Eggplant
55, Falu red
56, Fern green
57, Firebrick
58, Flax
59, Forest green
60, French Rose
61, Fuchsia
62, Gamboge
63, Gold
64, Goldenrod
65, Green
66, Grey
67, Han Purple
68, Harlequin
69, Heliotrope
70, Hollywood Cerise
71, Indigo
72, Ivory
73, Jade
74, Kelly green
75, Khaki
76, Lavender
77, Lawn green
78, Lemon
79, Lemon chiffon
80, Lilac
81, Lime
82, Lime green
83, Linen
84, Magenta
85, Magnolia
86, Malachite
87, Maroon
88, Mauve
89, Midnight Blue
90, Mint green
91, Misty rose
92, Moss green
93, Mustard
94, Myrtle
95, Navajo white
96, Navy Blue
97, Ochre
98, Office green
99, Olive
100, Olivine
101, Orange
102, Orchid
103, Papaya whip
104, Peach
105, Pear
106, Periwinkle
107, Persimmon
108, Pine Green
109, Pink
110, Platinum
111, Plum
112, Powder blue
113, Puce
114, Prussian blue
115, Psychedelic purple
116, Pumpkin
117, Purple
118, Quartz Grey
119, Raw umber
120, Razzmatazz
121, Red
122, Robin egg blue
123, Rose
124, Royal blue
125, Royal purple
126, Ruby
127, Russet
128, Rust
129, Safety orange
130, Saffron
131, Salmon
132, Sandy brown
133, Sangria
134, Sapphire
135, Scarlet
136, School bus yellow
137, Sea Green
138, Seashell
139, Sepia
140, Shamrock green
141, Shocking Pink
142, Silver
143, Sky Blue
144, Slate grey
145, Smalt
146, Spring bud
147, Spring green
148, Steel blue
149, Tan
150, Tangerine
151, Taupe
152, Teal
153, Tenne (Tawny)
154, Terra cotta
155, Thistle
156, Titanium White
157, Tomato
158, Turquoise
159, Tyrian purple
160, Ultramarine
161, Van Dyke Brown
162, Vermilion
163, Violet
164, Viridian
165, Wheat
166, White
167, Wisteria
168, Xanthic
169, Yellow
170, Zucchini