"DieRoll", "Armor", "Base Cost (in sp)", "Weight", "AC: 1e/2e", "AC: B/X", "AC: Ascnd", "AC: ACKS", "Dp", "S", "P", "B", "Material", "Description", "Type"
50,"Shield, Body", 15,15,"-1:-2 vs Missiles", "-1:-2 vs Missiles", "-1:-2 vs Missiles", "+1:+2 vs Missiles", 35,0,0,0,"Metal and wood", "The body shield, also known as the kite or tower shield, is a massive metal or wooden shield reaching nearly from the chin to the toe of the user. It must be firmly fastened to the forearm and the shield hand must firmly grip it at all times. Naturally, this precludes use of the shield hand for anything but holding the body shield in place.

Standing around 6' tall, the body shield provides a great deal of protection to the user, improving the overall armor class of the character by 1 against melee attacks and by 2 against missile attacks.", Shield
125,"Shield, Large", 13,13,-1,-1,1,1,30,0,0,0,"Metal and wood", "A large shield is carried in the same manner as a small shield (i.e., on the forearm). Unlike the small shield, however, it's weight prevents the character from using his shield hand for anything other than carrying the large shield. Large shields are usually made of metal and wood together, range from 3'-5' in diameter, and can be of any shape, from round to square to a spread dragon's wings.

A typical medieval shield resembles a triangle with one point facing downward. With a large shield, a character can defend against any number of frontal or flanking attacks in a given round and as an attack action, may bash an enemy for 1d6 points of damage and force a save or the victim of the bash is knocked down.", Shield
225,"Shield, Medium", 10,10,-1,-1,1,1,25,0,0,0,"Metal and wood", "A medium shield is carried in the same manner as a small shield (i.e., on the forearm). Unlike the small shield, however, it's weight prevents the character from using his shield hand for anything other than carrying the medium shield. Medium shields are usually made of metal, range from 2'-4' in diameter, and can be of any shape, from round to square to a spread dragon's wings.

A typical medieval shield resembles a triangle with one point facing downward. With a medium shield, a character can defend against any number of frontal or flanking attacks in a given round and as an attack action, may bash an enemy for 1d4 points of damage and force a save or the victim of the bash is knocked back 5'.", Shield
260,"Shield, Small", 7,5,-1,-1,1,1,10,0,0,0,"Metal and wood", "A small shield is usually round and is carried on the forearm, gripped with the shield hand. Its light weight as compared to a medium shield permits the user to carry other items in that hand, although he cannot wield or carry another weapon. A small shield (approximately 2' in diameter) can be used to protect against two frontal attacks of the user's choice. Like the buckler, the user can choose which attacks to use his shield against, but must decide before the attacks are rolled.", Shield
315,"Shield, Small wooden", 1,3,-1,-1,1,1,8,0,0,0,"Wood", "A small shield is usually round and is carried on the forearm, gripped with the shield hand. Its light weight as compared to a medium shield permits the user to carry other items in that hand, although he cannot wield or carry another weapon. A small shield (approximately 2' in diameter) can be used to protect against two frontal attacks of the user's choice. Like the buckler, the user can choose which attacks to use his shield against, but must decide before the attacks are rolled.", Shield
400, "Shield, Buckler", 5,3,-1,-1,1,1,10,0,0,0,"Metal and wood", "A buckler, also known as a target shield, is a small round shield of wood or metal that fastens to the forearm. It can be worn by crossbowmen and archers with no hindrance to their attacks with their chosen weapons. Because of its small size (approximately 1' in diameter), a buckler protects against one attack per melee round. The user can choose which attack he wishes to use his buckler against, but he must declare this before the attack roll has been made. This increases the defender's armor class only by 1 (more if magical) against that single attack.", Shield

