DieRoll, Time or Location
10, All the time
20, During daylight
30, During darkness
40, Above ground
50, Underground
60, During a full moon
70, Randomly at each dawn (1 in 6 chance)
80, Randomly at each dusk (1 in 6 chance)
90, During a new moon
100, During a gibbous moon
110, During a quarter moon
120, In the summer
130, In the fall
140, In the winter
150, In the spring
160, In the rain
170, In the sunlight
180, Under clouds
190, Indoors
200, In the wilderness
210, In a city or town
220, While being used as intended
230, While NOT being used as intended
240, When the moon is not in the sky
250, When in a site of great historical significance
260, When NOT in a site of great historical significance
270, When it strikes
280, Until it strikes
290, Randomly every time it's drawn
300, While defending
310, While NOT defending
320, While attacking
330, While NOT attacking
340, When near sites of great magical power
350, When NOT near sites of great magical power
360, When it is being searched for
370, When it is sheathed/quivered/secured
380, When it is unsheathed/unquivered/released/held
390, When it kills
400, When it fails to kill