DieRoll, Material, Action
80, High Carbon Steel, None
140, Folded Steel, None
200, Layered Steel, None
220, Crystal, None
240, Glass, None
260, Obsidian, None
280, Ceramic, None
300, Bone, Roll animal
360, Rare Metal, Roll rare metal
395, Magical Metal, Roll magical metal
400, Solid Gemstone, Roll gem