DieRoll, Pommel Shape, Action
125, Sphere, None
138, "Shapes (Pyramid, Cube)", None
150, Monster Head, Roll animal
163, Human Head, None
175, God Head, None
188, Crosses, None
200, Skulls, Roll animal
213, Holy Symbols, None
225, Limbs, None
238, "Hand, Claw, Paw or Talon", None
250, Grip has a short blade attached, None
275, Word Engravings, Roll symbols
300, Picture Carvings, Roll symbols
325, Runes, Roll symbols
362, Precious Metal Inlays, Roll rare metal
400, Bejeweled, Roll gem