DieRoll, Material, Action
66, Steel, None
99, Wood, None
132, Slate, None
154, Ivory, None
176, Bone, None
198, Antler or Coral, None
209, Marble, None
220, Obsidian, None 
231, Quartz, None
242, Iron, None
253, Bronze, None
264, Lead, None
308, Wrapped in Fabric, Roll Again
352, Wrapped in Fur, Roll Again
400, Wrapped in Leather, Roll Again