DieRoll, Armor, Action, Value
15, "Armor +1", Roll armor, 1000
25, "Armor +1, Shield +1", Roll armor and shield, 2000
27, "Armor +1, Shield +2", Roll armor and shield, 3000
28, "Armor +1, Shield +3", Roll armor and shield, 6000
32, "Armor +2", Roll armor, 2000
35, "Armor +2, Shield +1", Roll armor and shield, 3000
38, "Armor +2, Shield +2", Roll armor and shield, 4000
39, "Armor +2, Shield +3", Roll armor and shield, 6000
40, "Armor +3", Roll armor, 4000
41, "Armor +3, Shield +1", Roll armor and shield, 5000
42, "Armor +3, Shield +2", Roll armor and shield, 6000
43, "Armor +3, Shield +3", Roll armor and shield, 8000
63, "Shield +1", Roll shield, 1000
73, "Shield +2", Roll shield, 2000
79, "Shield +3", Roll shield, 4000
82, "Armor -1", Roll armor, 50
85, "Armor -2", Roll armor, 25
86, "Armor -1, Shield +1", Roll bad armor and shield, 1000
87, "Armor -2, Shield +1", Roll bad armor and shield, 1000
90, "Armor AC 0", Roll armor and shield, 1
94, "Shield -1", Roll shield, 50
97, "Shield -2", Roll shield, 25
100, "Shield AC 0", Roll shield, 0