Number, Type, Name
1, Style, "Black Man style (Chinese)"
2, Style, "Dwarven style (Persian)"
3, Style, "Blue Man style (Turkish)"
4, Style, "Red Man style (Pakistani)"
5, Style, "Elven style (Azerbaijani)"
6, Style, "Green Man style (Turkmen)"
7, Style, "Purple Man style (Oriental)"
8, Style, "Skeleton Man style (Spanish)"
9, Style, "Orange Man style (French)"
10, Style, "Yellow Man style (English)"
11, Weave, Woven
12, Weave, Needlefelt
13, Weave, Knotted
14, Weave, Tufted
15, Weave, Flatweaved
16, Weave, Hooked
17, Weave, Embroidered